M48
METRIC,0000.00
T01C0.5
T02C0.8
T03C0.9
T04C0.92
T05C1.1
T06C1.2
%
T01
X+004930Y+003221
X+004622Y+002853
X+004428Y+002706
X+004427Y+002493
X+004375Y+002264
X+004194Y+002410
X+004201Y+002706
X+003931Y+003092
X+003592Y+002638
X+003219Y+002757
X+003175Y+002502
X+003034Y+002512
X+002727Y+002704
X+002749Y+002840
X+002801Y+002965
X+002833Y+003088
X+002737Y+003212
X+002737Y+003466
X+002740Y+003633
X+002304Y+002576
X+002300Y+002320
X+002619Y+002064
X+002646Y+001683
X+002296Y+001688
X+002294Y+001824
X+003196Y+001458
X+003571Y+001526
X+003807Y+001528
X+004425Y+001937
X+004549Y+002062
X+005178Y+002486
X+005347Y+001895
X+005869Y+003375
T02
X+003384Y+003063
X+003384Y+002580
T03
X+004239Y+003593
X+004493Y+003593
X+004747Y+003593
X+005001Y+003593
X+004920Y+002988
X+004920Y+002734
X+004920Y+002480
X+004920Y+002226
X+004920Y+001972
X+004920Y+001718
X+005001Y+001275
X+004747Y+001275
X+004493Y+001275
X+004239Y+001275
X+003985Y+001275
X+003731Y+001275
X+003477Y+001275
X+003223Y+001275
X+002969Y+001275
X+002715Y+001275
X+001714Y+001434
X+001714Y+001688
X+001714Y+001942
X+001460Y+001942
X+001206Y+001942
X+001206Y+001688
X+001460Y+001688
X+001460Y+001434
X+001206Y+001434
X+001206Y+002196
X+001206Y+002450
X+001206Y+002704
X+001460Y+002704
X+001714Y+002704
X+001714Y+002450
X+001460Y+002450
X+001460Y+002196
X+001714Y+002196
X+001714Y+002958
X+001460Y+002958
X+001206Y+002958
X+001206Y+003212
X+001460Y+003212
X+001714Y+003212
X+001714Y+003466
X+001460Y+003466
X+001206Y+003466
X+003223Y+003593
X+003477Y+003593
X+003731Y+003593
X+003985Y+003593
X+005255Y+001275
X+005509Y+001275
T04
X+006080Y+002778
X+006080Y+002528
X+006080Y+002328
X+006080Y+002078
T05
X+006290Y+002653
X+006290Y+002203
T06
X+006355Y+003013G85X+006225Y+003013
X+006355Y+001843G85X+006225Y+001843
T00
M30
